{
  "currentUser":{
    "name": "Thach",
    "username": "username fake",
    "auth_type": "NO_SECURITY",
    "avatar": "https:\/\/gw.alipayobjects.com/zos/antfincdn/XAosXuNZyF/BiazfanxmamNRoxxVxka.png",
    "userid": "00000001",
    "email": "antdesign@alipay.com",
    "title": "title",
    "group": "UED",
    "notifyCount": 12,
    "unreadCount": 11,
    "country": "Vietnam",
    "address": "address",
    "phone": "0752-268888888"
  },
  "aiTrain" :{
    "count": 31,
    "next": "http:\/\/xxx.yy/api/ai_models?ordering=&page=2&page_size=16",
    "previous": null,
    "results": [
      {
        "uuid": "xxx1",
        "name": "ai_model_name1",
        "type": "Anomaly-Detection",
        "customer": {
          "uuid": "yyyzzz1",
          "name": "a_name1"
        },
        "asset": {
          "uuid": "xyz1231",
          "name": "asset_name1"
        },
        "batch_size": 100,
        "train_length": 30,
        "test_length": 30,
        "epoch": 1000,
        "cycle": 1,
        "key": "None",
        "others": {}
      },

      {
        "uuid": "xxx2",
        "name": "ai_model_name2",
        "type": "Anomaly-Detection",
        "customer": {
          "uuid": "yyyzzz2",
          "name": "a_name2"
        },
        "asset": {
          "uuid": "xyz1232",
          "name": "asset_name2"
        },
        "batch_size": 100,
        "train_length": 30,
        "test_length": 30,
        "epoch": 1000,
        "cycle": 1,
        "key": "None",
        "others": {}
      }
    ],
    "page": 1
  },
  "aiTrain___xxx1" : {

  }
}
